/Users/edvardschoyen/Documents/Kode/wargames-part-2/Wargames/src/main/java/edu/ntnu/idatt2001/InfantryUnit.java
/Users/edvardschoyen/Documents/Kode/wargames-part-2/Wargames/src/main/java/edu/ntnu/idatt2001/CommanderUnit.java
/Users/edvardschoyen/Documents/Kode/wargames-part-2/Wargames/src/main/java/edu/ntnu/idatt2001/Unit.java
/Users/edvardschoyen/Documents/Kode/wargames-part-2/Wargames/src/main/java/edu/ntnu/idatt2001/CavalryUnit.java
/Users/edvardschoyen/Documents/Kode/wargames-part-2/Wargames/src/main/java/edu/ntnu/idatt2001/RangedUnit.java
/Users/edvardschoyen/Documents/Kode/wargames-part-2/Wargames/src/main/java/edu/ntnu/idatt2001/Army.java
/Users/edvardschoyen/Documents/Kode/wargames-part-2/Wargames/src/main/java/edu/ntnu/idatt2001/Battle.java
/Users/edvardschoyen/Documents/Kode/wargames-part-2/Wargames/src/main/java/edu/ntnu/idatt2001/WargamesClient.java
